142857
142857142857142857
142857142857142857142857142857
142857142857142857142857142857142857142857142857142857
142857142857142857142857142857
142857142857
142857142857142857
142857142857142857142857
142857142857142857142857142857


need make sure that the pattern repeats where the last one finished off  + 1
make sure that all the unique numbers are used in the pattern



1234567

1234567123456712345671234567
123456712345671234567

12345671234567


1/7 = 0
10 / 7 = 1 r 3
30 / 7 = 4 r 2
20 / 7 = 2 r 6
60 / 7 = 8 r 4
40 / 7 = 5 r 5
50 / 7 = 7 r 1
LOOP 142857 142857




1/28     =  0 
10  / 28 =  0
100 / 28 =  3 r 16
160 / 28 =  5 r 20
200 / 28 =  7 r 4
40  / 28 =  1 r 12
120 / 28 =  4 r 8
80  / 28 =  2 r 24
240 / 28 =  8 r 16
160 / 28 =  5 r 20
200 / 28 =  7 r 4
40  / 28 =  1 r 12
120 / 28 =  4 r 8
80  / 28 =  2 r 24
240 / 28 =  8 r 16
160 / 28 =  5 r 20
200 / 28 =  7 r 4


gg gg ggggggggggggg


1 / 6 = 0
10 / 6 = 1 r 4
40 / 6 = 6 r 4
40 / 6 = 6 r 4
40 / 6 = 6 r 4
40 / 6 = 6 r 4
40 / 6 = 6 r 4
40 / 6 = 6 r 4


181
